<svg width="64" height="42" viewBox="0 0 64 42" fill="none" xmlns="http://www.w3.org/2000/svg">
<path d="M4.71591 30H1.02273L11.7045 0.90909H15.3409L26.0227 30H22.3295L13.6364 5.51136H13.4091L4.71591 30ZM6.07955 18.6364H20.9659V21.7614H6.07955V18.6364ZM34.0767 0.90909V30H30.554V0.90909H34.0767ZM57.049 8.18182C56.8786 6.74242 56.1873 5.625 54.9751 4.82955C53.763 4.03409 52.2763 3.63636 50.5149 3.63636C49.227 3.63636 48.1001 3.8447 47.1342 4.26136C46.1778 4.67803 45.4297 5.25095 44.8899 5.98011C44.3596 6.70928 44.0945 7.53788 44.0945 8.46591C44.0945 9.24242 44.2791 9.91004 44.6484 10.4688C45.0272 11.018 45.5102 11.4773 46.0973 11.8466C46.6844 12.2064 47.3 12.5047 47.9439 12.7415C48.5878 12.9687 49.1797 13.1534 49.7195 13.2955L52.674 14.0909C53.4316 14.2898 54.2744 14.5644 55.2024 14.9148C56.1399 15.2652 57.0348 15.7434 57.8871 16.3494C58.7488 16.946 59.459 17.7131 60.0178 18.6506C60.5765 19.5881 60.8558 20.7386 60.8558 22.1023C60.8558 23.6742 60.4439 25.0947 59.62 26.3636C58.8056 27.6326 57.6125 28.6411 56.0405 29.3892C54.478 30.1373 52.5793 30.5114 50.3445 30.5114C48.2611 30.5114 46.4571 30.1752 44.9325 29.5028C43.4174 28.8305 42.2242 27.893 41.353 26.6903C40.4912 25.4877 40.0036 24.0909 39.8899 22.5H43.5263C43.621 23.5985 43.9903 24.5076 44.6342 25.2273C45.2876 25.9375 46.1115 26.4678 47.1058 26.8182C48.1096 27.1591 49.1892 27.3295 50.3445 27.3295C51.6892 27.3295 52.8965 27.1117 53.9666 26.6761C55.0367 26.2311 55.8842 25.6155 56.5092 24.8295C57.1342 24.0341 57.4467 23.1061 57.4467 22.0455C57.4467 21.0795 57.1768 20.2936 56.6371 19.6875C56.0973 19.0814 55.3871 18.589 54.5064 18.2102C53.6257 17.8314 52.674 17.5 51.6513 17.2159L48.0717 16.1932C45.799 15.5398 43.9998 14.607 42.674 13.3949C41.3482 12.1828 40.6854 10.5966 40.6854 8.63636C40.6854 7.00757 41.1257 5.58712 42.0064 4.375C42.8965 3.15341 44.0897 2.20644 45.5859 1.53409C47.0916 0.852272 48.7725 0.511363 50.6286 0.511363C52.5036 0.511363 54.1702 0.847537 55.6286 1.51989C57.0869 2.18276 58.2422 3.09185 59.0945 4.24716C59.9562 5.40246 60.4107 6.71401 60.4581 8.18182H57.049Z" fill="#002FA6"/>
<rect y="34" width="64" height="8" fill="#002FA6"/>
<path d="M5.75386 41V34.4545H7.96551C8.47901 34.4545 8.89875 34.5472 9.22474 34.7326C9.55287 34.9158 9.79577 35.1641 9.95344 35.4773C10.1111 35.7905 10.1899 36.1399 10.1899 36.5256C10.1899 36.9112 10.1111 37.2617 9.95344 37.5771C9.7979 37.8924 9.55713 38.1438 9.23114 38.3313C8.90514 38.5167 8.48753 38.6094 7.9783 38.6094H6.39307V37.9062H7.95273C8.30429 37.9062 8.58661 37.8455 8.79967 37.7241C9.01274 37.6026 9.16722 37.4386 9.2631 37.2319C9.36111 37.0231 9.41011 36.7876 9.41011 36.5256C9.41011 36.2635 9.36111 36.0291 9.2631 35.8224C9.16722 35.6158 9.01168 35.4538 8.79648 35.3366C8.58128 35.2173 8.29577 35.1577 7.93994 35.1577H6.54648V41H5.75386ZM12.6368 41V34.4545H14.8484C15.3598 34.4545 15.7795 34.5419 16.1076 34.7166C16.4358 34.8892 16.6787 35.1268 16.8363 35.4293C16.994 35.7319 17.0728 36.076 17.0728 36.4616C17.0728 36.8473 16.994 37.1893 16.8363 37.4876C16.6787 37.7859 16.4368 38.0202 16.1108 38.1907C15.7848 38.359 15.3683 38.4432 14.8612 38.4432H13.0714V37.7273H14.8356C15.1851 37.7273 15.4663 37.6761 15.6794 37.5739C15.8946 37.4716 16.0501 37.3267 16.146 37.1392C16.244 36.9496 16.293 36.7237 16.293 36.4616C16.293 36.1996 16.244 35.9705 16.146 35.7745C16.048 35.5785 15.8914 35.4272 15.6762 35.3207C15.461 35.212 15.1765 35.1577 14.8228 35.1577H13.4294V41H12.6368ZM15.7177 38.0597L17.3285 41H16.4081L14.8228 38.0597H15.7177ZM25.0863 37.7273C25.0863 38.4176 24.9617 39.0142 24.7124 39.517C24.4631 40.0199 24.1211 40.4077 23.6865 40.6804C23.2518 40.9531 22.7554 41.0895 22.1971 41.0895C21.6389 41.0895 21.1424 40.9531 20.7078 40.6804C20.2731 40.4077 19.9311 40.0199 19.6818 39.517C19.4326 39.0142 19.3079 38.4176 19.3079 37.7273C19.3079 37.0369 19.4326 36.4403 19.6818 35.9375C19.9311 35.4347 20.2731 35.0469 20.7078 34.7741C21.1424 34.5014 21.6389 34.3651 22.1971 34.3651C22.7554 34.3651 23.2518 34.5014 23.6865 34.7741C24.1211 35.0469 24.4631 35.4347 24.7124 35.9375C24.9617 36.4403 25.0863 37.0369 25.0863 37.7273ZM24.3193 37.7273C24.3193 37.1605 24.2245 36.6822 24.0348 36.2923C23.8473 35.9023 23.5927 35.6072 23.271 35.407C22.9514 35.2067 22.5934 35.1065 22.1971 35.1065C21.8008 35.1065 21.4418 35.2067 21.1201 35.407C20.8005 35.6072 20.5458 35.9023 20.3562 36.2923C20.1687 36.6822 20.075 37.1605 20.075 37.7273C20.075 38.294 20.1687 38.7724 20.3562 39.1623C20.5458 39.5522 20.8005 39.8473 21.1201 40.0476C21.4418 40.2479 21.8008 40.348 22.1971 40.348C22.5934 40.348 22.9514 40.2479 23.271 40.0476C23.5927 39.8473 23.8473 39.5522 24.0348 39.1623C24.2245 38.7724 24.3193 38.294 24.3193 37.7273ZM30.0947 34.4545H30.8874V39.1335C30.8874 39.5511 30.8107 39.9059 30.6572 40.1978C30.5038 40.4897 30.2876 40.7113 30.0084 40.8626C29.7293 41.0138 29.4001 41.0895 29.0209 41.0895C28.6629 41.0895 28.3444 41.0245 28.0653 40.8945C27.7861 40.7624 27.5667 40.5749 27.4069 40.332C27.2471 40.0891 27.1672 39.8004 27.1672 39.4659H27.947C27.947 39.6513 27.9928 39.8132 28.0844 39.9517C28.1782 40.0881 28.306 40.1946 28.468 40.2713C28.6299 40.348 28.8142 40.3864 29.0209 40.3864C29.2489 40.3864 29.4428 40.3384 29.6026 40.2425C29.7624 40.1467 29.8838 40.006 29.9669 39.8207C30.0521 39.6332 30.0947 39.4041 30.0947 39.1335V34.4545ZM33.6458 41V34.4545H37.5961V35.1577H34.4384V37.3693H37.3915V38.0724H34.4384V40.2969H37.6472V41H33.6458ZM45.4617 36.5H44.6691C44.6222 36.272 44.5402 36.0717 44.423 35.8991C44.308 35.7266 44.1673 35.5817 44.0011 35.4645C43.8371 35.3452 43.6549 35.2557 43.4546 35.196C43.2543 35.1364 43.0455 35.1065 42.8282 35.1065C42.4319 35.1065 42.0729 35.2067 41.7511 35.407C41.4315 35.6072 41.1769 35.9023 40.9873 36.2923C40.7998 36.6822 40.706 37.1605 40.706 37.7273C40.706 38.294 40.7998 38.7724 40.9873 39.1623C41.1769 39.5522 41.4315 39.8473 41.7511 40.0476C42.0729 40.2479 42.4319 40.348 42.8282 40.348C43.0455 40.348 43.2543 40.3182 43.4546 40.2585C43.6549 40.1989 43.8371 40.1104 44.0011 39.9933C44.1673 39.8739 44.308 39.728 44.423 39.5554C44.5402 39.3807 44.6222 39.1804 44.6691 38.9545H45.4617C45.4021 39.2891 45.2934 39.5884 45.1357 39.8526C44.9781 40.1168 44.782 40.3416 44.5477 40.527C44.3133 40.7102 44.0502 40.8498 43.7582 40.9457C43.4685 41.0415 43.1585 41.0895 42.8282 41.0895C42.27 41.0895 41.7735 40.9531 41.3389 40.6804C40.9042 40.4077 40.5622 40.0199 40.3129 39.517C40.0636 39.0142 39.939 38.4176 39.939 37.7273C39.939 37.0369 40.0636 36.4403 40.3129 35.9375C40.5622 35.4347 40.9042 35.0469 41.3389 34.7741C41.7735 34.5014 42.27 34.3651 42.8282 34.3651C43.1585 34.3651 43.4685 34.413 43.7582 34.5089C44.0502 34.6048 44.3133 34.7454 44.5477 34.9308C44.782 35.114 44.9781 35.3377 45.1357 35.6019C45.2934 35.864 45.4021 36.1634 45.4617 36.5ZM47.5546 35.1577V34.4545H52.4637V35.1577H50.4054V41H49.6128V35.1577H47.5546ZM58.4365 36.0909C58.3981 35.767 58.2426 35.5156 57.9699 35.3366C57.6971 35.1577 57.3626 35.0682 56.9663 35.0682C56.6766 35.0682 56.423 35.1151 56.2057 35.2088C55.9905 35.3026 55.8221 35.4315 55.7007 35.5955C55.5814 35.7596 55.5217 35.946 55.5217 36.1548C55.5217 36.3295 55.5633 36.4798 55.6464 36.6055C55.7316 36.729 55.8403 36.8324 55.9724 36.9155C56.1045 36.9964 56.243 37.0636 56.3878 37.1168C56.5327 37.168 56.6659 37.2095 56.7873 37.2415L57.4521 37.4205C57.6226 37.4652 57.8122 37.527 58.021 37.6058C58.2319 37.6847 58.4333 37.7923 58.6251 37.9286C58.819 38.0629 58.9788 38.2354 59.1045 38.4464C59.2302 38.6573 59.293 38.9162 59.293 39.223C59.293 39.5767 59.2003 39.8963 59.015 40.1818C58.8317 40.4673 58.5633 40.6942 58.2096 40.8626C57.858 41.0309 57.4308 41.1151 56.928 41.1151C56.4592 41.1151 56.0533 41.0394 55.7103 40.8881C55.3694 40.7369 55.1009 40.5259 54.9049 40.2553C54.711 39.9847 54.6013 39.6705 54.5757 39.3125H55.3939C55.4152 39.5597 55.4983 39.7642 55.6432 39.9261C55.7902 40.0859 55.9756 40.2053 56.1993 40.2841C56.4251 40.3608 56.668 40.3991 56.928 40.3991C57.2305 40.3991 57.5022 40.3501 57.743 40.2521C57.9837 40.152 58.1744 40.0135 58.315 39.8366C58.4557 39.6577 58.526 39.4489 58.526 39.2102C58.526 38.9929 58.4653 38.8161 58.3438 38.6797C58.2224 38.5433 58.0626 38.4325 57.8644 38.3473C57.6663 38.2621 57.4521 38.1875 57.222 38.1236L56.4166 37.8935C55.9052 37.7464 55.5004 37.5366 55.2021 37.2638C54.9038 36.9911 54.7547 36.6342 54.7547 36.1932C54.7547 35.8267 54.8538 35.5071 55.0519 35.2344C55.2522 34.9595 55.5207 34.7464 55.8573 34.5952C56.1961 34.4418 56.5743 34.3651 56.9919 34.3651C57.4138 34.3651 57.7888 34.4407 58.1169 34.592C58.445 34.7411 58.705 34.9457 58.8967 35.2056C59.0906 35.4656 59.1929 35.7607 59.2035 36.0909H58.4365Z" fill="white"/>
</svg>
